0.0 enemy 300 0 cubic 600 1200 600 -500 300 720 #
0.0 enemy 600 0 linear 600 720 #
0.0 enemy 100 0 linear 100 720 #
2.0 enemy 300 0 cubic 600 1200 600 -500 300 720 #
0.0 enemy 600 0 linear 600 720 #
0.0 enemy 100 0 linear 100 720 #
2.0 enemy 300 0 cubic 600 1200 600 -500 300 720 #
0.0 enemy 600 0 linear 600 720 #
0.0 enemy 100 0 linear 100 720 #
2.0 enemy 300 0 cubic 600 1200 600 -500 300 720 #
0.0 enemy 600 0 linear 600 720 #
0.0 enemy 100 0 linear 100 720 #
2.0 enemy 300 0 cubic 600 1200 600 -500 300 720 #
0.0 enemy 600 0 linear 600 720 #
0.0 enemy 100 0 linear 100 720 #
2.0 enemy 300 0 cubic 600 1200 600 -500 300 720 #
0.0 enemy 600 0 linear 600 720 #
0.0 enemy 100 0 linear 100 720 #
